  <svg xmlns="http://www.w3.org/2000/svg" xmlns:xlink="http://www.w3.org/1999/xlink" viewBox="0 0 50 80" xml:space="preserve">
    <polyline fill="none" stroke="#000000" stroke-width="1" stroke-linecap="round" stroke-linejoin="round" points="
	0.375,0.375 45.63,38.087 0.375,75.8 "/>
  </svg>